<svg xmlns="http://www.w3.org/2000/svg" width="272.403" height="541.169" viewBox="0 0 272.403 541.169">
  <g id="smartphone" transform="translate(-126 -1484.739)">
    <text id="Votre_syndic" data-name="Votre syndic" transform="translate(242 2012.69)" fill="#fff" font-size="43" font-family="SegoeUI, Segoe UI"><tspan x="-115.972" y="0">Votre syndic</tspan></text>
    <g id="Groupe_9" data-name="Groupe 9" transform="translate(140 1485.239)">
      <rect id="Rectangle_3" data-name="Rectangle 3" width="255.238" height="539.448" rx="45" transform="translate(0 1.05)" fill="#a9357e"/>
      <g id="iPhone_X_R_" data-name="iPhone X R " transform="translate(0.094 0)">
        <path id="iPhone_X_R_2" data-name="iPhone X R 2" d="M219.769,2.212H40.04A39.162,39.162,0,0,0,1,41.252v462.09a39.276,39.276,0,0,0,39.162,39.039H219.646a39.276,39.276,0,0,0,39.162-39.039V41.252A39.162,39.162,0,0,0,219.769,2.212ZM166.734,16.085a4.667,4.667,0,1,1-4.542,4.788V20.75a4.549,4.549,0,0,1,4.42-4.665Zm-55.245,1.473h36.83a3.069,3.069,0,0,1,0,6.138h-36.83a3.069,3.069,0,1,1,0-6.138ZM246.531,506.534A23.569,23.569,0,0,1,222.96,530.1H36.848a23.569,23.569,0,0,1-23.571-23.571V39.042A24.555,24.555,0,0,1,36.848,14.489H56.858c1.841,0,5.524,0,5.524,3.192V28.116A12.278,12.278,0,0,0,75.764,39.164h108.4a12.276,12.276,0,0,0,13.259-10.8V17.68c0-3.315,3.929-2.824,5.77-3.192H222.96a24.555,24.555,0,0,1,23.571,24.553Z" transform="translate(-1 -2.212)" fill="#fff" stroke="#a9357e" stroke-width="1"/>
      </g>
    </g>
    <g id="Groupe_10" data-name="Groupe 10" transform="translate(239.336 1559.411)">
      <rect id="Rectangle_1" data-name="Rectangle 1" width="59.967" height="59.967" rx="8" transform="translate(0 0)" fill="#fff"/>
      <g id="Groupe_3" data-name="Groupe 3" transform="translate(7.369 6.707)">
        <g id="Groupe_1" data-name="Groupe 1" transform="translate(19.493 16.92)">
          <path id="Tracé_1" data-name="Tracé 1" d="M410.941,285.987s4.99-.195,11.7-1.109c3.753-.628,7.664-2.986,7.664-8.339a7.949,7.949,0,0,0-3.914-6.713,15.957,15.957,0,0,0-16.292,0,8.716,8.716,0,0,0-3.908,7.025v11.462a8.111,8.111,0,0,0,3.908,6.655,14.972,14.972,0,0,0,8.147,2.244,13.685,13.685,0,0,0,7.846-2.244,9.635,9.635,0,0,0,4.082-5.678l-4.825.2a5.4,5.4,0,0,1-1.851,2.1,9.389,9.389,0,0,1-5.253,1.464,10.609,10.609,0,0,1-5.552-1.464,3.206,3.206,0,0,1-1.753-3.272Zm0-8.772c0-2.841,1.234-3.848,1.753-4.194a10.425,10.425,0,0,1,5.552-1.455c2.172,0,5.222.6,6.824,2.626a4.479,4.479,0,0,1,.166,4.61c-.745,1.5-3.478,1.974-3.478,1.974a107.675,107.675,0,0,1-10.817,1.117Z" transform="translate(-406.19 -267.591)" fill="#3c4646"/>
        </g>
        <g id="Groupe_2" data-name="Groupe 2" transform="translate(0 0)">
          <path id="Tracé_2" data-name="Tracé 2" d="M330.8,200.171l-16.095,14.8a2.077,2.077,0,0,0-.654,1.482v13.868a2.009,2.009,0,0,0,2.014,2.015H330.27V228.3H318.075V217.413l14.1-12.967,6.622,6.085.049-.052,1.635-3.942-6.924-6.365A2.041,2.041,0,0,0,330.8,200.171Z" transform="translate(-314.047 -197.088)" fill="#c82832"/>
          <path id="Tracé_3" data-name="Tracé 3" d="M451.27,187.725a1.076,1.076,0,0,0-1.512.626l-5.268,12.693h4.546a1.629,1.629,0,0,0,1.366-1l4.49-10.8Z" transform="translate(-416.895 -187.61)" fill="#c82832"/>
          <path id="Tracé_4" data-name="Tracé 4" d="M492.263,212.915a.853.853,0,0,0-1.3-.026l-6.8,6.551,3.308,1.435a1.273,1.273,0,0,0,1.308-.285l5.628-5.418Z" transform="translate(-448.178 -207.315)" fill="#c82832"/>
        </g>
      </g>
    </g>
    <g id="Groupe_45" data-name="Groupe 45" transform="translate(181.39 1885.012)">
      <g id="remove_circle_outline" transform="translate(0 44.149)">
        <rect id="Path" width="33.112" height="33.112" transform="translate(0 0)" fill="rgba(0,0,0,0)"/>
        <path id="Icon" d="M13.8,27.593a13.8,13.8,0,1,1,13.8-13.8A13.812,13.812,0,0,1,13.8,27.593Zm0-24.834A11.037,11.037,0,1,0,24.834,13.8,11.05,11.05,0,0,0,13.8,2.759Zm6.9,12.417H6.9V12.417h13.8v2.758Z" transform="translate(2.76 2.76)" fill="#fff"/>
      </g>
      <g id="add_circle_outline" transform="translate(143.485 44.149)">
        <rect id="Path-2" data-name="Path" width="33.112" height="33.112" transform="translate(0 0)" fill="rgba(0,0,0,0)"/>
        <path id="Icon-2" data-name="Icon" d="M13.8,27.593a13.8,13.8,0,1,1,13.8-13.8A13.812,13.812,0,0,1,13.8,27.593Zm0-24.834A11.037,11.037,0,1,0,24.834,13.8,11.05,11.05,0,0,0,13.8,2.759Zm1.379,17.935H12.417V15.176H6.9V12.417h5.519V6.9h2.759v5.519h5.518v2.759H15.176v5.517Z" transform="translate(2.76 2.759)" fill="#fff"/>
      </g>
      <text id="_18_C" data-name="18°C" transform="translate(86.288 71.251)" fill="#fff" font-size="38" font-family="SegoeUI-Bold, Segoe UI" font-weight="700"><tspan x="-40.932" y="0">18°C</tspan></text>
      <text id="Température" transform="translate(83.454 19)" fill="#fff" font-size="21" font-family="SegoeUI, Segoe UI"><tspan x="-68.04" y="0">Température</tspan></text>
    </g>
    <g id="Groupe_46" data-name="Groupe 46" transform="translate(181.39 1763.601)">
      <g id="toggle_on" transform="translate(50.367 40.01)">
        <path id="Icon-3" data-name="Icon" d="M55.173,41.385H20.69A20.692,20.692,0,0,1,20.69,0H55.173a20.692,20.692,0,0,1,0,41.385ZM20.69,6.9a13.793,13.793,0,1,0,0,27.586H55.173a13.793,13.793,0,1,0,0-27.586ZM55.173,31.042A10.346,10.346,0,1,1,65.52,20.695,10.358,10.358,0,0,1,55.173,31.042Z" transform="translate(0)" fill="#fff"/>
      </g>
      <g id="format_align_justify" transform="translate(143.485 44.149)">
        <rect id="Path-3" data-name="Path" width="33.112" height="33.112" transform="translate(0 0)" fill="rgba(0,0,0,0)"/>
        <path id="Icon-4" data-name="Icon" d="M24.834,13.8H0V11.037H24.834V13.8Zm0-5.518H0V5.519H24.834V8.277Zm0-5.519H0V0H24.834V2.758Z" transform="translate(4.139 4.139)" fill="#fff"/>
        <path id="Op_component_1" data-name="Op component 1" d="M853,1224.5h4.139v6.912H859.9V1224.5h4.139l-5.519-5.5Z" transform="translate(-841.963 -1198.305)" fill="#fff"/>
      </g>
      <g id="format_align_justify-2" data-name="format_align_justify" transform="translate(0 44.149)">
        <rect id="Path-4" data-name="Path" width="33.112" height="33.112" transform="translate(0 0)" fill="rgba(0,0,0,0)"/>
        <path id="Icon-5" data-name="Icon" d="M24.834,13.8H0V11.037H24.834V13.8Zm0-5.518H0V5.519H24.834V8.277Zm0-5.519H0V0H24.834V2.758Z" transform="translate(4.139 4.139)" fill="#fff"/>
        <path id="Op_component_1-2" data-name="Op component 1" d="M0,5.5H4.139v6.912H6.9V5.5h4.139L5.519,0Z" transform="translate(22.074 33.111) rotate(180)" fill="#fff"/>
      </g>
      <text id="VOLETS" transform="translate(85.187 19)" fill="#fff" font-size="21" font-family="SegoeUI, Segoe UI"><tspan x="-35.309" y="0">VOLETS</tspan></text>
    </g>
    <g id="Groupe_47" data-name="Groupe 47" transform="translate(177.251 1654.608)">
      <g id="wb_incandescent" transform="translate(184.875 81.4) rotate(180)">
        <rect id="Path-5" data-name="Path" width="41.39" height="41.39" fill="rgba(0,0,0,0)"/>
        <path id="Icon-6" data-name="Icon" d="M20.7,36.131H17.246V30.957H20.7V36.13Zm10.4-4.3h0l-3.086-3.1,2.414-2.415,3.1,3.088-2.43,2.43ZM6.829,31.818h0L4.4,29.387l3.087-3.1,2.431,2.431-3.086,3.1Zm12.141-4.225A10.34,10.34,0,0,1,13.8,8.3V0H24.145V8.3a10.465,10.465,0,0,1,3.745,3.711,10.34,10.34,0,0,1-8.919,15.586Zm18.971-8.708H32.767V15.436h5.174v3.448Zm-32.767,0H0V15.436H5.174v3.448Z" transform="translate(1.724 3.535)" fill="#fff"/>
      </g>
      <g id="Groupe_11" data-name="Groupe 11" transform="translate(0 40.01)">
        <path id="Path-6" data-name="Path" d="M0,0H41.39V41.39H0Z" transform="translate(41.39 41.39) rotate(180)" fill="rgba(0,0,0,0)"/>
        <g id="wb_incandescent-2" data-name="wb_incandescent" transform="translate(41.39 41.39) rotate(180)">
          <rect id="Path-7" data-name="Path" width="41.39" height="41.39" fill="rgba(0,0,0,0)"/>
          <path id="Icon-7" data-name="Icon" d="M10.347,27.593A10.34,10.34,0,0,1,5.173,8.3V0H15.521V8.3a10.465,10.465,0,0,1,3.745,3.711,10.34,10.34,0,0,1-8.919,15.586ZM8.622,3.449v6.829l-1.725,1a6.9,6.9,0,1,0,6.9,0l-1.725-1V3.449Z" transform="translate(10.348 3.535)" fill="#fff"/>
        </g>
      </g>
      <g id="toggle_on-2" data-name="toggle_on" transform="translate(54.506 40.01)">
        <path id="Icon-8" data-name="Icon" d="M55.173,41.385H20.69A20.692,20.692,0,0,1,20.69,0H55.173a20.692,20.692,0,0,1,0,41.385ZM20.69,6.9a13.793,13.793,0,1,0,0,27.586H55.173a13.793,13.793,0,1,0,0-27.586ZM55.173,31.042A10.346,10.346,0,1,1,65.52,20.695,10.358,10.358,0,0,1,55.173,31.042Z" transform="translate(0)" fill="#fff"/>
      </g>
      <text id="Lumières" transform="translate(88.288 19)" fill="#fff" font-size="21" font-family="SegoeUI, Segoe UI"><tspan x="-46.655" y="0">Lumières</tspan></text>
    </g>
  </g>
</svg>
