<svg xmlns="http://www.w3.org/2000/svg" width="317.1" height="33.833" viewBox="0 0 317.1 33.833">
  <g id="Groupe_44" data-name="Groupe 44" transform="translate(-1397 -1918.667)">
    <text id="En_partenariat_avec" data-name="En partenariat avec" transform="translate(1490 1943)" fill="#606060" font-size="22" font-family="SegoeUI, Segoe UI" opacity="0.7"><tspan x="-92.517" y="0">En partenariat avec</tspan></text>
    <g id="logo_somfy_2_1_" data-name="logo_somfy_2 (1)" transform="translate(1583.588 1912.167)">
      <g id="Groupe_43" data-name="Groupe 43" transform="translate(0.652 6.5)">
        <g id="Groupe_42" data-name="Groupe 42">
          <g id="Groupe_41" data-name="Groupe 41">
            <g id="Groupe_29" data-name="Groupe 29" transform="translate(0 8.251)">
              <g id="Groupe_28" data-name="Groupe 28">
                <path id="Tracé_24" data-name="Tracé 24" d="M5.492,24.053s1.132.5,2.264.88l3.522,1.384a1.735,1.735,0,0,1,1.006,2.138c-.252,1.132-1.635,2.138-4.528,1.761-1.132-.126-3.773-.755-3.773-.755h0c-.126,0-1.635-.629-2.641-.126-.377.252-.629.5-.629.88a1.693,1.693,0,0,0,1.132,2.012,3.873,3.873,0,0,0,1.635.377l.377.126a26.444,26.444,0,0,0,6.289.755c1.761,0,6.163-.377,7.924-3.647a6.018,6.018,0,0,0,.377-3.144,5.11,5.11,0,0,0-2.641-3.773,20.489,20.489,0,0,0-3.647-1.384l-1.887-.629c-2.515-1.006-3.019-1.887-3.019-2.39a1.865,1.865,0,0,1,.5-1.384,4.142,4.142,0,0,1,3.019-1.006,11.046,11.046,0,0,1,3.773.5c.126,0,.377.126.5.126a1.98,1.98,0,0,0,1.509-.126,1.285,1.285,0,0,0,.5-.88c0-.252.126-1.258-1.384-1.887A18.627,18.627,0,0,0,7.5,13.236a12.89,12.89,0,0,0-3.27,1.006A4.921,4.921,0,0,0,1.467,18.77a4.59,4.59,0,0,0,1.887,3.647,5.422,5.422,0,0,0,2.138,1.635" transform="translate(-0.652 -13.06)" fill="#fab800"/>
              </g>
            </g>
            <path id="Tracé_25" data-name="Tracé 25" d="M32.264,9.8A14.464,14.464,0,1,0,46.728,24.264,14.308,14.308,0,0,0,32.264,9.8Zm0,19.621a5.1,5.1,0,0,1-5.157-5.157,5.18,5.18,0,0,1,5.157-5.157,5.1,5.1,0,0,1,5.157,5.157A5.025,5.025,0,0,1,32.264,29.421Z" transform="translate(3.768 -5.649)" fill="#fab800"/>
            <path id="Tracé_26" data-name="Tracé 26" d="M44.526,16.264A2.162,2.162,0,0,1,46.916,14c1.384,0,2.264,1.258,4.025,1.258,2.138,0,2.641-1.258,5.534-1.258,3.27,0,3.522,1.258,5.534,1.258C64.147,15.258,64.524,14,68.3,14c2.012,0,4.276,1.132,4.276,3.647V30.225a2.39,2.39,0,1,1-4.779,0V19.911c0-1.132,0-3.4-2.012-3.522,0,0-4.905-.629-4.905,7.924v5.911a2.388,2.388,0,0,1-2.39,2.39,2.452,2.452,0,0,1-2.39-2.264h0V19.911c0-.755.126-3.522-2.012-3.522-4.151,0-4.905,4.276-4.905,7.8v6.037a2.388,2.388,0,0,1-2.39,2.39,2.452,2.452,0,0,1-2.39-2.264V16.264" transform="translate(10.624 -4.567)" fill="#fab800"/>
            <g id="Groupe_33" data-name="Groupe 33" transform="translate(86.712)">
              <g id="Groupe_32" data-name="Groupe 32">
                <g id="Groupe_31" data-name="Groupe 31">
                  <g id="Groupe_30" data-name="Groupe 30">
                    <path id="Tracé_27" data-name="Tracé 27" d="M80.041,23.354a1.885,1.885,0,0,1,2.012-1.887h2.515a2.655,2.655,0,0,0,2.012-.755,3,3,0,0,0,.755-2.012,2.439,2.439,0,0,0-.755-1.887,2.655,2.655,0,0,0-2.012-.755H81.928c-1.761,0-1.761-.377-1.761-1.509a3.034,3.034,0,0,1,1.761-2.767,4,4,0,0,1,1.761-.252h3.019A2.571,2.571,0,0,0,89.1,9.77a1.6,1.6,0,0,0,.126-.755A2.523,2.523,0,0,0,86.707,6.5H83.688a4.279,4.279,0,0,0-1.258.126,11.909,11.909,0,0,0-3.773,1.006,7.738,7.738,0,0,0-4.779,6.163v.126c-.252,1.384-.629,2.264-2.012,2.264a2.391,2.391,0,0,0-1.635.629A2.519,2.519,0,0,0,69.6,18.7h0a2.764,2.764,0,0,0,2.264,2.767,2.05,2.05,0,0,1,1.887,2.012h0v8.175a3.075,3.075,0,0,0,.755,2.264,2.385,2.385,0,0,0,1.635.629h1.132a2.212,2.212,0,0,0,1.384-.5,2.8,2.8,0,0,0,1.132-2.515V23.354Z" transform="translate(-69.594 -6.5)" fill="#fab800"/>
                  </g>
                </g>
              </g>
            </g>
            <g id="Groupe_34" data-name="Groupe 34" transform="translate(105.837 9.244)">
              <path id="Tracé_28" data-name="Tracé 28" d="M93.1,29.132a3.721,3.721,0,0,1,.252,1.258,4.442,4.442,0,0,1-1.887,3.773,6.658,6.658,0,0,1-3.773,1.258H86.435A1.641,1.641,0,0,0,84.8,36.93c0,1.006.629,1.509,1.761,1.509h1.132a12.579,12.579,0,0,0,3.27-.5,9.64,9.64,0,0,0,5.66-4.779c.377-.755,3.647-8.175,6.163-13.584l1.887-4.151a.8.8,0,0,0,0-.755,1.256,1.256,0,0,0-.5-.629,2.143,2.143,0,0,0-1.761,0,2.845,2.845,0,0,0-1.509,1.132c0,.126-2.767,5.911-2.893,6.415-.5,1.006-1.132,1.635-1.761,1.635-.755,0-1.132-.126-2.138-1.761-.126-.126-3.019-5.408-3.522-6.289a2.343,2.343,0,0,0-1.509-1.132,2.772,2.772,0,0,0-2.012,0,1.516,1.516,0,0,0-.629.629c-.126.252,0,.5,0,.755C86.309,15.674,92.724,28.377,93.1,29.132Z" transform="translate(-84.8 -13.85)" fill="#fab800"/>
            </g>
            <g id="Groupe_40" data-name="Groupe 40" transform="translate(124.326 22.388)">
              <g id="Groupe_39" data-name="Groupe 39">
                <g id="Groupe_38" data-name="Groupe 38">
                  <g id="Groupe_37" data-name="Groupe 37">
                    <g id="Groupe_36" data-name="Groupe 36">
                      <g id="Groupe_35" data-name="Groupe 35">
                        <path id="Tracé_29" data-name="Tracé 29" d="M102.267,29.834a2.767,2.767,0,1,1,2.767-2.767A2.792,2.792,0,0,1,102.267,29.834Zm0-4.905a2.019,2.019,0,0,0-2.012,2.138,2.1,2.1,0,0,0,2.012,2.138,2.142,2.142,0,0,0,0-4.276Zm.5,3.4c-.377-.629-.629-1.132-.755-1.132h-.126v1.132h-.5V25.558h.88c.629,0,.88.377.88.755,0,.5-.377.629-.629.755h0c.126,0,.5.629.88,1.258Zm-.755-2.264h0l-.126.755h.126c.252,0,.5-.126.5-.377S102.393,26.061,102.016,26.061Z" transform="translate(-99.5 -24.3)" fill="#fab800"/>
                      </g>
                    </g>
                  </g>
                </g>
              </g>
            </g>
          </g>
        </g>
      </g>
    </g>
  </g>
</svg>
